<?xml version="1.0" encoding="utf-8"?>
<!-- Generator: Adobe Illustrator 18.0.0, SVG Export Plug-In . SVG Version: 6.00 Build 0)  -->
<!DOCTYPE svg PUBLIC "-//W3C//DTD SVG 1.1//EN" "http://www.w3.org/Graphics/SVG/1.1/DTD/svg11.dtd">
<svg version="1.1" id="Layer_1" xmlns="http://www.w3.org/2000/svg" xmlns:xlink="http://www.w3.org/1999/xlink" x="0px" y="0px"
	 viewBox="0 330.8 612 130.4" enable-background="new 0 330.8 612 130.4" xml:space="preserve">
<g>
	<g>
		<path fill="#231F20" d="M9.5,423.7v23.6c0,3.9,1.4,9.5,8.3,9.5c6.5,0,8.8-4.4,8.8-9.9v-23.3c0-1.4-0.7-2.1-1.4-2.5h6.2
			c-0.7,0.5-1.4,1.2-1.4,2.5l-0.2,23.1c0,9.7-5.3,13.4-12.7,13.4c-6.2,0-14.3-3-14.3-12.9v-23.3c0-1.4-0.9-2.1-1.6-2.5h10.4
			C10.4,421.7,9.5,422.3,9.5,423.7z"/>
		<path fill="#231F20" d="M100.1,423.7c0-1.4-0.5-2.1-1.4-2.5h6c-0.7,0.5-1.4,1.2-1.4,2.5v37.4c0,0-25.7-31.9-25.7-32.4v28.4
			c0,1.2,0.7,2.1,1.4,2.5h-6c0.7-0.5,1.4-1.4,1.4-2.5v-30.5c0-2.3,0-2.3-0.9-3.5c-0.5-0.7-1.4-1.4-2.3-2.1h9.2l19.9,25L100.1,423.7
			L100.1,423.7z"/>
		<path fill="#231F20" d="M157.2,421.2c-0.9,0.5-1.4,1.2-1.4,2.5V457c0,1.2,0.5,2.1,1.4,2.5h-9.7c0.9-0.5,1.4-1.4,1.4-2.5v-33.3
			c0-1.4-0.5-2.1-1.4-2.5C147.5,421.2,157.2,421.2,157.2,421.2z"/>
		<path fill="#231F20" d="M222.6,424c0.5-1.4,0.2-2.3-1.2-2.8h6.5c-1.4,0.9-1.4,1.4-2.1,2.8c-0.9,2.3-13.9,37-13.9,37
			s-14.1-34.9-15-37c-0.7-1.2-1.4-2.1-3-2.8h11.8c-1.4,0.5-1.6,1.8-1.2,3c0,0.5,9,23.8,9,23.8S222.3,424.4,222.6,424z"/>
		<path fill="#231F20" d="M287.5,426c-0.9-1.4-2.1-1.8-4.2-2.1c-1.6,0-9,0-9,0v12.9h8.1c0.7,0,1.6-0.9,1.8-1.6v6
			c-0.2-0.7-1.2-1.6-1.8-1.6h-8.1v16.6c1.2,0.2,4.4,0.5,6.9,0.2c4.6,0,6.7,0,8.8-3.5l-1.2,6.5h-23.1c0.9-0.5,1.6-1.2,1.6-2.5v-33.3
			c0-1.4-0.7-2.1-1.6-2.5h21.5L287.5,426z"/>
		<path fill="#231F20" d="M346.4,440.1c3.7,0.5,5.3,3,6,4.2c0,0,6.5,10.6,8.3,12.9c0.9,1.4,3.5,2.3,3.5,2.3h-6.9
			c-2.1,0-3.7-1.4-4.9-2.8c-2.3-3.5-4.9-7.6-6.7-10.9c-1.4-2.3-2.5-4.6-4.9-4.6c-0.7,0-2.3,0-2.3,0v15.5c0,1.2,0.7,2.1,1.4,2.5h-9.7
			c0.9-0.5,1.4-1.4,1.4-2.5v-33c0-1.4-0.5-2.1-1.4-2.5h11.6c11.1,0,13.6,5.8,13.6,9.5C355.5,436.7,350.1,439.7,346.4,440.1z
			 M338.4,424v14.8c0,0,1.4,0,2.3,0c3.7,0,7.4-2.1,7.4-7.9c0-2.5-1.4-7.2-6.7-7.2C340,423.7,338.4,424,338.4,424z"/>
		<path fill="#231F20" d="M422.9,448.2c0,7.2-6,11.8-12.5,11.8c-4.9,0-8.3-1.8-10.4-2.8l-0.2-9.5c0.9,3.9,4.2,9.2,9.7,9.2
			c5.3,0,6.9-3.9,6.9-6.7c0-5.3-4.6-6.2-9.5-9c-4.9-2.8-7.2-6-7.2-10.2c0-7.6,6.7-10.6,11.8-10.6c1.8,0,5.3,0.5,8.1,2.1l0.2,8.3
			c-0.7-3-3.7-7.6-9-7.6c-4.2,0-5.8,3-5.8,5.3c0,3.5,2.3,4.9,7.4,7.2C417.9,438.5,422.9,440.4,422.9,448.2z"/>
		<path fill="#231F20" d="M474.5,421.2c-0.9,0.5-1.4,1.2-1.4,2.5V457c0,1.2,0.5,2.1,1.4,2.5h-9.7c0.9-0.5,1.4-1.4,1.4-2.5v-33.3
			c0-1.4-0.5-2.1-1.4-2.5C464.8,421.2,474.5,421.2,474.5,421.2z"/>
		<path fill="#231F20" d="M532.7,424v33c0,1.2,0.7,2.1,1.4,2.5h-9.5c0.9-0.5,1.4-1.4,1.4-2.5v-33c-3.9,0-8.6,0.5-8.6,0.5
			c-1.4,0-2.3,1.4-2.8,2.3v-5.5h29.4v5.5c-0.5-0.9-1.2-2.1-2.5-2.3C541.5,424.4,536.7,424,532.7,424z"/>
		<path fill="#231F20" d="M612,421.2c-1.6,0.5-3,2.1-3.5,3.5l-8.6,17.1V457c0,1.2,0.9,2.1,1.8,2.5h-10.6c0.7-0.5,1.8-1.2,1.8-2.5
			v-15l-10.4-18.3c-0.7-1.4-1.4-1.8-2.8-2.8h12c-1.4,0.5-2.3,0.9-0.9,3.5l7.6,13.9l7.2-14.6c0.7-1.2,0.5-2.5-1.2-2.8L612,421.2
			L612,421.2z"/>
	</g>
	<g>
		<path fill="#231F20" d="M42.5,332.4H55c-1.2,0.7-1.8,1.8-1.8,3.5v46.2c0,1.6,0.7,2.8,1.8,3.5H41.6c1.2-0.7,1.8-1.8,1.8-3.5v-39.3
			c0-0.9,0.2-1.8,0.2-1.8l-0.7,1.8L25.4,387l-18-43l-0.7-2.1c0,0,0,1.4,0,2.1v38.1c0,1.6,0.9,2.8,2.1,3.5H0.7
			c1.2-0.7,1.8-1.8,1.8-3.5v-46.2c0-1.4-1.2-3-2.3-3.5h13.2l14.8,36.1L42.5,332.4z"/>
		<path fill="#231F20" d="M80.7,332.4c-1.2,0.7-1.8,1.6-1.8,3.5v46.2c0,1.6,0.7,2.8,1.8,3.5H67.3c1.2-0.7,1.8-1.8,1.8-3.5v-46.2
			c0-1.8-0.7-3-1.8-3.5H80.7L80.7,332.4z"/>
		<path fill="#231F20" d="M137.7,347.9c-4.6-10.9-13.2-12-16.9-12c-12.7,0-19.9,9.7-19.9,22.4c0,10.9,5.1,24,20.6,24
			c3.5,0,12-1.2,16.9-12c0.2-0.2-0.7,11.3-0.7,11.3c-6.2,3.7-12.7,5.1-19,5.1c-14.6,0-27.7-10.6-27.7-27.3
			c0-13.6,9.7-27.7,28.7-27.7c6,0,11.8,1.2,17.6,4.2C137.1,335.7,138,348.2,137.7,347.9z"/>
		<path fill="#231F20" d="M181.4,332.4h13.4c-1.2,0.7-2.1,1.6-2.1,3.5v46.2c0,1.6,0.9,2.8,2.1,3.5h-13.4c1.2-0.7,1.8-1.8,1.8-3.5
			v-23.8h-23.1v24c0,1.6,0.7,2.8,1.8,3.5h-13.4c1.2-0.7,1.8-1.8,1.8-3.5v-46.2c0-1.8-0.7-3-1.8-3.5H162c-1.2,0.7-1.8,1.6-1.8,3.5
			v18.5h23.1v-18.5C183.3,334.3,182.6,333.1,181.4,332.4z"/>
		<path fill="#231F20" d="M220.5,332.4c-1.2,0.7-1.8,1.6-1.8,3.5v46.2c0,1.6,0.7,2.8,1.8,3.5h-13.4c1.2-0.7,1.8-1.8,1.8-3.5v-46.2
			c0-1.8-0.7-3-1.8-3.5H220.5L220.5,332.4z"/>
		<path fill="#231F20" d="M277.1,335.7l0.5,12.5c-3.7-10.6-13.2-12.2-16.9-12.2c-12.7,0-19.9,9.7-19.9,22.4c0,10.9,5.1,24,20.6,24
			c1.6,0,6-0.2,9.5-2.5v-13.6c0-1.8-0.7-3-1.8-3.7h13.4c-1.2,0.7-1.8,1.8-1.8,3.7v11.6c0,1.6,0.9,3,1.2,3.2
			c-6.2,3.7-16.9,5.8-22.9,5.8c-14.8,0-28-10.6-28-27.3c0-13.6,9.7-27.7,28.9-27.7C265.8,331.5,271.1,333.1,277.1,335.7z"/>
		<path fill="#231F20" d="M331.4,381.9c0.7,1.6,1.2,2.5,3.7,3.9h-15.9c1.8-1.2,2.3-2.3,1.8-3.9c-0.2-0.7-2.1-5.5-4.2-10.9h-18.3
			c-2.3,5.3-3.9,9.9-4.2,10.9c-0.7,1.8-0.2,3,1.6,3.9h-10.2c2.1-1.4,2.8-2.3,3.5-3.9c1.4-3,21-51.1,21-51.1S330,379.1,331.4,381.9z
			 M315,367.1c-3.5-8.8-7.6-19.2-7.6-19.2s-5.1,13.4-7.4,19.2H315z"/>
		<path fill="#231F20" d="M377.4,335.9c0-1.8-0.7-3-1.8-3.5h8.3c-1.2,0.7-1.8,1.6-1.8,3.5v52c0,0-35.8-44.4-35.8-45.1v39.3
			c0,1.6,0.9,2.8,2.1,3.5h-8.6c1.2-0.7,1.8-1.8,1.8-3.5v-41.8c0-3,0-3.2-1.4-4.9c-0.7-0.9-1.8-2.1-3.5-3h12.7l27.5,34.4v-31H377.4z"
			/>
		<path fill="#231F20" d="M444.7,370.1c0,9.7-8.1,16.4-17.3,16.4c-6.7,0-11.8-2.5-14.3-3.7l-0.5-13.2c1.4,5.5,5.8,12.9,13.6,12.9
			c7.4,0,9.7-5.5,9.7-9.5c0-7.6-6.5-8.6-13.2-12.5c-6.9-3.9-9.9-8.3-9.9-14.1c0-10.6,9.5-15,16.2-15c2.5,0,7.4,0.5,11.3,3l0.5,11.6
			c-0.9-4.2-5.3-10.4-12.5-10.4c-5.5,0-7.9,4.2-7.9,7.6c0,4.9,3.2,6.7,10.2,9.9C437.5,356.7,444.7,359.3,444.7,370.1z"/>
		<path fill="#231F20" d="M474.5,336.4v46c0,1.6,0.9,2.8,1.8,3.5h-13.4c1.2-0.7,1.8-1.8,1.8-3.5v-46c-5.5,0-12,0.5-12,0.5
			c-1.8,0-3,1.8-3.7,3.2v-7.6H490v7.6c-0.7-1.4-1.6-3-3.5-3.2C486.7,337.1,479.8,336.4,474.5,336.4z"/>
		<path fill="#231F20" d="M529,381.9c0.7,1.6,1.2,2.5,3.7,3.9h-15.9c1.8-1.2,2.3-2.3,1.8-3.9c-0.2-0.7-2.1-5.5-4.2-10.9h-18.3
			c-2.3,5.3-3.9,9.9-4.2,10.9c-0.7,1.8-0.2,3,1.6,3.9h-10.2c2.1-1.4,2.8-2.3,3.5-3.9c1.4-3,21-51.1,21-51.1S527.6,379.1,529,381.9z
			 M512.6,367.1c-3.5-8.8-7.6-19.2-7.6-19.2s-5.1,13.4-7.4,19.2H512.6z"/>
		<path fill="#231F20" d="M552.1,336.4v46c0,1.6,0.9,2.8,1.8,3.5h-13.2c1.2-0.7,1.8-1.8,1.8-3.5v-46c-5.5,0-12,0.5-12,0.5
			c-1.8,0-3,1.8-3.7,3.2v-7.6h40.9v7.6c-0.7-1.4-1.6-3-3.5-3.2C564.4,337.1,557.5,336.4,552.1,336.4z"/>
		<path fill="#231F20" d="M606,339.4c-1.4-2.1-3-2.8-5.8-2.8c-2.3-0.2-12.7-0.2-12.7-0.2v18h11.3c1.2,0,2.3-1.2,2.8-2.3v8.3
			c-0.5-1.2-1.6-2.3-2.8-2.3h-11.3v23.1c1.4,0.2,6,0.5,9.7,0.5c6.5-0.2,9.5,0,12.2-4.9l-1.6,9h-32.1c1.2-0.7,2.3-1.6,2.3-3.5v-46.2
			c0-1.8-1.2-3-2.3-3.5h30L606,339.4z"/>
	</g>
	<rect y="399.7" fill="#231F20" width="610.8" height="4.2"/>
</g>
</svg>
